<svg xmlns="http://www.w3.org/2000/svg" width="46.428" height="46.428" viewBox="0 0 46.428 46.428">
  <g id="Group_12" data-name="Group 12" transform="translate(-517 -732.786)">
    <g id="Ellipse_2" data-name="Ellipse 2" transform="translate(517 732.786)" fill="none" stroke="#79838d" stroke-width="3">
      <circle cx="23.214" cy="23.214" r="23.214" stroke="none"/>
      <circle cx="23.214" cy="23.214" r="21.714" fill="none"/>
    </g>
    <g id="Group_18" data-name="Group 18" transform="translate(490.997 740.991)">
      <g id="Group_13" data-name="Group 13" transform="translate(40.003 3.924)">
        <path id="Path_49" data-name="Path 49" d="M56.579,18.59a.731.731,0,0,1,.722.722V37.657a.731.731,0,0,1-.722.722H42.365a.731.731,0,0,1-.722-.722V19.312a.732.732,0,0,1,.722-.722H56.579m0-1.64H42.365A2.369,2.369,0,0,0,40,19.312V37.657a2.369,2.369,0,0,0,2.362,2.362H56.579a2.369,2.369,0,0,0,2.362-2.362V19.312a2.369,2.369,0,0,0-2.362-2.362Z" transform="translate(-40.003 -16.95)" fill="#79838d" stroke="#79838d" stroke-linecap="round" stroke-width="0.3"/>
      </g>
      <g id="Group_14" data-name="Group 14" transform="translate(45.281 3.009)">
        <path id="Path_50" data-name="Path 50" d="M127.17,4.649v.279h-5.092V4.649h5.092m.853-1.64h-6.8a.79.79,0,0,0-.787.787V5.782a.79.79,0,0,0,.787.787h6.8a.79.79,0,0,0,.787-.787V3.8a.79.79,0,0,0-.787-.787Z" transform="translate(-120.438 -3.009)" fill="#79838d" stroke="#79838d" stroke-linecap="round" stroke-width="0.3"/>
      </g>
      <g id="Group_15" data-name="Group 15" transform="translate(42.32 11.773)">
        <path id="Path_51" data-name="Path 51" d="M84.579,141.554c-.611,0-1.349-.413-1.6-1.574-.45-2.078-.829-2.1-.845-2.1-.2.063-.523.854-.661,1.191-.085.207-.164.4-.251.583a1.886,1.886,0,0,1-3.655.082c-.264-.442-.386-.442-.459-.442H75.972a.656.656,0,1,1,0-1.312h1.135a1.845,1.845,0,0,1,1.585,1.08c.313.523.478.742.683.742.088,0,.321,0,.661-.714.07-.148.143-.326.221-.515.346-.847.82-2.007,1.876-2.007,1.449,0,1.89,2.04,2.128,3.136.085.393.24.54.318.54h0c.1,0,.268-.139.328-.434.355-1.777,1.466-1.787,2.874-1.787h1.251a.656.656,0,0,1,0,1.312H87.805c-1.408,0-1.465,0-1.611.732a1.728,1.728,0,0,1-1.6,1.489Z" transform="translate(-75.316 -136.566)" fill="#79838d" stroke="#79838d" stroke-linecap="round" stroke-width="0.3"/>
      </g>
      <g id="Group_16" data-name="Group 16" transform="translate(42.458 20.493)">
        <path id="Path_52" data-name="Path 52" d="M82.636,270.761H78.065a.656.656,0,1,1,0-1.312h4.571a.656.656,0,1,1,0,1.312Z" transform="translate(-77.409 -269.449)" fill="#79838d" stroke="#79838d" stroke-linecap="round" stroke-width="0.3"/>
      </g>
      <g id="Group_17" data-name="Group 17" transform="translate(42.458 22.885)">
        <path id="Path_53" data-name="Path 53" d="M88.175,307.226H78.065a.656.656,0,0,1,0-1.312h10.11a.656.656,0,0,1,0,1.312Z" transform="translate(-77.409 -305.914)" fill="#79838d" stroke="#79838d" stroke-linecap="round" stroke-width="0.3"/>
      </g>
    </g>
  </g>
</svg>
