<svg xmlns="http://www.w3.org/2000/svg" width="46.428" height="46.428" viewBox="0 0 46.428 46.428">
  <g id="Group_21" data-name="Group 21" transform="translate(-1068.786 -1077.786)">
    <g id="Path_56" data-name="Path 56" transform="translate(1068.786 1077.786)" fill="none">
      <path d="M23.214,0A23.214,23.214,0,1,1,0,23.214,23.214,23.214,0,0,1,23.214,0Z" stroke="none"/>
      <path d="M 23.2138671875 2.999996185302734 C 17.81454658508301 2.999996185302734 12.73840713500977 5.102607727050781 8.920505523681641 8.920505523681641 C 5.102607727050781 12.73840713500977 2.999996185302734 17.81454658508301 2.999996185302734 23.2138671875 C 2.999996185302734 28.61318778991699 5.102607727050781 33.68932723999023 8.920505523681641 37.50722503662109 C 12.73840713500977 41.32512664794922 17.81454658508301 43.42773818969727 23.2138671875 43.42773818969727 C 28.61318778991699 43.42773818969727 33.68932723999023 41.32512664794922 37.50722503662109 37.50722503662109 C 41.32512664794922 33.68932723999023 43.42773818969727 28.61318778991699 43.42773818969727 23.2138671875 C 43.42773818969727 17.81454658508301 41.32512664794922 12.73840713500977 37.50722503662109 8.920505523681641 C 33.68932723999023 5.102607727050781 28.61318778991699 2.999996185302734 23.2138671875 2.999996185302734 M 23.2138671875 -3.814697265625e-06 C 36.03452682495117 -3.814697265625e-06 46.42773818969727 10.39320755004883 46.42773818969727 23.2138671875 C 46.42773818969727 36.03452682495117 36.03452682495117 46.42773818969727 23.2138671875 46.42773818969727 C 10.39320755004883 46.42773818969727 -3.814697265625e-06 36.03452682495117 -3.814697265625e-06 23.2138671875 C -3.814697265625e-06 10.39320755004883 10.39320755004883 -3.814697265625e-06 23.2138671875 -3.814697265625e-06 Z" stroke="none" fill="#ff6d6a"/>
    </g>
    <g id="clock-circular-outline" transform="translate(1068 1077.713)">
      <g id="Group_10" data-name="Group 10">
        <path id="Path_39" data-name="Path 39" d="M260.728,150.969v-9.745a1.97,1.97,0,1,0-3.939,0V151.6c0,.031.008.06.009.091a1.958,1.958,0,0,0,.568,1.489l7.336,7.335a1.97,1.97,0,1,0,2.785-2.785Z" transform="translate(-235.465 -127.691)" fill="#ff6d6a"/>
      </g>
    </g>
  </g>
</svg>
