<?xml version="1.0" encoding="utf-8"?>
<!-- Generator: Adobe Illustrator 23.0.4, SVG Export Plug-In . SVG Version: 6.00 Build 0)  -->
<svg version="1.1" xmlns="http://www.w3.org/2000/svg" xmlns:xlink="http://www.w3.org/1999/xlink" x="0px" y="0px"
	 viewBox="0 0 750 567.2" style="enable-background:new 0 0 750 567.2;" xml:space="preserve">
<style type="text/css">
	.st0{fill:url(#SVGID_1_);}
	.st1{fill:url(#SVGID_2_);}
	.st2{fill:url(#SVGID_3_);}
	.st3{fill:url(#SVGID_4_);}
	.st4{fill:url(#SVGID_5_);}
	.st5{fill:#8614F6;}
	.st6{clip-path:url(#mask_x5F_box_1_);}
	.st7{fill:#C42A26;}
	.st8{fill:#FFFFFF;}
	.st9{font-family:'Roboto-Medium';}
	.st10{font-size:24px;}
	.st11{fill:#E1EAEE;}
	.st12{fill-rule:evenodd;clip-rule:evenodd;fill:#B9C2C6;}
	.st13{clip-path:url(#mask_x5F_line_2_);fill-rule:evenodd;clip-rule:evenodd;fill:#3D4B71;}
	.st14{clip-path:url(#mask_x5F_line_2_);fill-rule:evenodd;clip-rule:evenodd;fill:#346DE0;}
	.st15{opacity:0.3;fill:#FFFFFF;enable-background:new    ;}
	.st16{fill:#DEE9FF;}
	.st17{font-family:'Roboto-Bold';}
	.st18{font-size:36px;}
	.st19{fill:#5D98F9;}
	.st20{font-size:20px;}
	.st21{fill:#E6E6E6;}
	.st22{opacity:0.4;fill:none;stroke:#FFFFFF;stroke-miterlimit:10;enable-background:new    ;}
	.st23{fill:#D6E7F0;}
	.st24{fill:#597791;}
	.st25{fill:url(#Union_1-2_2_);}
	.st26{fill-rule:evenodd;clip-rule:evenodd;fill:url(#SVGID_6_);}
	.st27{fill-rule:evenodd;clip-rule:evenodd;fill:#FF6233;}
	.st28{opacity:0.999;fill:url(#Path_33_2_);enable-background:new    ;}
	.st29{fill:url(#Path_34_2_);}
	.st30{fill:url(#Ellipse_5_2_);}
	.st31{clip-path:url(#mask_x5F_line_3_);fill-rule:evenodd;clip-rule:evenodd;fill:#3D4B71;}
	.st32{clip-path:url(#mask_x5F_line_3_);fill-rule:evenodd;clip-rule:evenodd;fill:#C42A26;}
	.st33{fill:#F73E4C;}
	.st34{fill:url(#Union_1-2_3_);}
	.st35{fill-rule:evenodd;clip-rule:evenodd;fill:url(#SVGID_7_);}
	.st36{opacity:0.999;fill:url(#Path_33_3_);enable-background:new    ;}
	.st37{fill:url(#Path_34_3_);}
	.st38{fill:url(#Ellipse_5_3_);}
</style>
<g id="timeline">
	<g id="gradation_x5F_line">
		
			<linearGradient id="SVGID_1_" gradientUnits="userSpaceOnUse" x1="40.0048" y1="787.1539" x2="40.0048" y2="1307.9133" gradientTransform="matrix(1 0 0 1 0 -766)">
			<stop  offset="0" style="stop-color:#D31741"/>
			<stop  offset="1" style="stop-color:#8614F6"/>
		</linearGradient>
		<path class="st0" d="M61.7,122c-0.7-2.3-2.4-4.1-4.6-5c0-2.3-1.1-4.6-3-6c-2.1-1.6-4.7-2-7.2-1.3c-0.9-1.3-2.8-2.7-4.4-3V44.3
			C52.9,42.8,61,33.9,61,23c0-11.9-9.6-21.5-21.5-21.5S18,11.1,18,23c0,11.2,8.6,20.4,19.5,21.4v62.7c-1.4,0.3-2.4,1.4-3.2,2.4
			c-2.3-0.6-4.8-0.2-6.7,1.1c-2,1.4-3.2,3.5-3.3,5.9c-2.2,0.8-4,2.5-4.8,4.8c-0.8,2.3-0.4,4.7,0.9,6.6c-1.3,1.9-1.7,4.3-1,6.6
			s2.5,4.1,4.7,4.9c0.1,2.3,1.2,4.5,3.1,5.9c2,1.4,4.4,1.9,6.7,1.3c0.9,1.2,2.1,2,3.6,2.5v218c-10.9,1-19.5,10.2-19.5,21.4
			s8.6,20.4,19.5,21.4v111.7C26.6,522.6,18,531.8,18,543c0,11.9,9.6,21.5,21.5,21.5S61,554.9,61,543c0-10.8-8.1-19.8-18.5-21.3v-112
			c10.4-1.5,18.5-10.4,18.5-21.3s-8.1-19.8-18.5-21.3v-218c1.7-0.6,3-1.4,3.7-2.4c2.3,0.7,4.8,0.3,6.8-1s3.2-3.5,3.4-5.8
			c2.2-0.7,4-2.4,4.9-4.7c0.8-2.2,0.5-4.7-0.7-6.7C61.9,126.7,62.4,124.3,61.7,122 M21,23c0-10.2,8.3-18.5,18.5-18.5S58,12.8,58,23
			s-8.3,18.5-18.5,18.5S21,33.2,21,23z M58,543c0,10.2-8.3,18.5-18.5,18.5S21,553.2,21,543s8.3-18.5,18.5-18.5S58,532.8,58,543z
			 M58,388.5c0,10.2-8.3,18.5-18.5,18.5S21,398.7,21,388.5S29.3,370,39.5,370S58,378.3,58,388.5z M57.5,129.6c1.2,1.3,1.5,3,1,4.7
			c-0.6,1.6-2.1,2.8-3.8,3.1l-1.4,0.2l0.2,1.4c0.2,1.7-0.6,3.4-2,4.3c-1.5,1-3.4,1.1-5,0.3l-1.2-0.6l-0.7,1.2
			c-0.4,0.8-1.1,1.4-1.9,1.8c-1.2,0.6-2.5,0.8-3.8,0.4c-1.3-0.4-2.3-1.2-2.9-2.4l-0.7-1.2l-1.3,0.6c-1.6,0.7-3.5,0.5-5-0.5
			c-1.4-1-2.1-2.7-1.9-4.4l0.2-1.4l-1.4-0.3c-1.7-0.3-3.1-1.5-3.7-3.2c-0.5-1.6-0.1-3.4,1.1-4.6l1.1-1l-1-1.1c-1.2-1.2-1.6-3-1-4.6
			c0.6-1.7,2-2.9,3.7-3.1l1.4-0.2l-0.2-1.4c-0.2-1.7,0.5-3.4,2-4.4s3.4-1.2,5-0.4l1.3,0.6l0.7-1.2c0.5-0.9,1.3-1.6,2.2-2
			c2.5-1.2,5.4-0.1,6.6,2.3l0.7,1.4l1.4-0.7c1.7-0.9,3.8-0.7,5.3,0.4c1.4,1,2.1,2.7,1.8,4.4l-0.2,1.4l1.4,0.3
			c1.7,0.3,3.1,1.6,3.6,3.3l0,0c0.5,1.6,0,3.4-1.2,4.6l-1.1,1L57.5,129.6z"/>
		
			<linearGradient id="SVGID_2_" gradientUnits="userSpaceOnUse" x1="40.7463" y1="787.1539" x2="40.7463" y2="1307.9133" gradientTransform="matrix(1 0 0 1 0 -766)">
			<stop  offset="0" style="stop-color:#D31741"/>
			<stop  offset="1" style="stop-color:#8614F6"/>
		</linearGradient>
		<path class="st1" d="M48.1,121.1L37.2,132l-3.9-3.9c-1-1-2.6-1-3.5,0c-1,1-1,2.6,0,3.5l5.6,5.6c0.6,0.6,1.4,0.8,2.3,0.7
			c0.5-0.1,1-0.3,1.4-0.7l12.6-12.6c1-1,1-2.6,0-3.5C50.6,120.1,49,120.1,48.1,121.1z"/>
		
			<linearGradient id="SVGID_3_" gradientUnits="userSpaceOnUse" x1="39.7463" y1="929.3625" x2="39.7463" y2="1255.0884" gradientTransform="matrix(1 0 0 1 0 -766)">
			<stop  offset="0" style="stop-color:#D31741"/>
			<stop  offset="1" style="stop-color:#8614F6"/>
		</linearGradient>
		<path class="st2" d="M30.5,384.7L30.5,384.7c-0.3,0-0.5,0.2-0.5,0.5v13.5c0,1.2,1,2.2,2.2,2.2h15.1l0,0c1.2,0,2.2-1,2.2-2.2v-13.5
			c0-0.3-0.2-0.5-0.5-0.5H30.5z M35.7,392.4l2.2,2.2l6.3-6.3c0.6-0.5,1.5-0.5,2,0c0.6,0.6,0.6,1.5,0,2l-7.3,7.3
			c-0.6,0.6-1.5,0.6-2.1,0l-3.2-3.2c-0.5-0.4-0.6-1.4,0.1-2C34.3,391.7,35.2,391.9,35.7,392.4z"/>
		
			<linearGradient id="SVGID_4_" gradientUnits="userSpaceOnUse" x1="51.6784" y1="1008.4567" x2="51.6784" y2="1203.4902" gradientTransform="matrix(1 0 0 1 0 -766)">
			<stop  offset="0" style="stop-color:#D31741"/>
			<stop  offset="1" style="stop-color:#8614F6"/>
		</linearGradient>
		<path class="st3" d="M44.1,382.5c0,0,0,1.3,0,2.2c1,0,14.6,0,15.2,0c0-0.7,0-2.2,0-2.2c0-4.2-3.4-7.5-7.6-7.5
			C47.4,375,44.1,378.4,44.1,382.5z M47.3,382.5c0-2.4,1.9-4.3,4.3-4.3s4.3,1.9,4.3,4.3v2.2h-8.6V382.5z"/>
		
			<linearGradient id="SVGID_5_" gradientUnits="userSpaceOnUse" x1="39.5463" y1="787.1539" x2="39.5463" y2="1307.9133" gradientTransform="matrix(1 0 0 1 0 -766)">
			<stop  offset="0" style="stop-color:#D31741"/>
			<stop  offset="1" style="stop-color:#8614F6"/>
		</linearGradient>
		<path class="st4" d="M47,34.5v-1.1c0-2.2-0.9-4.4-2.6-5.9l-1.1-1c-1.4-1.3-1.5-3.5-0.2-5c0.1-0.1,1.4-1.3,1.4-1.3
			c1.7-1.5,2.6-3.6,2.6-5.9v-1.1c0-0.5-0.4-0.8-0.8-0.8H32.8c-0.5,0-0.8,0.4-0.8,0.8v1.1c0,2.2,1,4.4,2.6,5.9l1.1,1
			c1.4,1.3,1.6,3.5,0.3,5c-0.1,0.1-0.2,0.2-0.3,0.3l-1.1,1C32.9,29,32,31.1,32,33.4v1.1c0,0.5,0.4,0.8,0.8,0.8h13.3
			C46.6,35.3,47,34.9,47,34.5z M44.8,32.9c0,0.3-0.3,0.6-0.6,0.6h-9.4c-0.3,0-0.6-0.3-0.6-0.6V32c0-1.6,0.9-3.1,2.3-3.9l2.5-1.4
			c0.3-0.2,0.7-0.2,1,0l2.5,1.4c1.4,0.8,2.3,2.3,2.3,3.9C44.8,32,44.8,32.9,44.8,32.9z"/>
		<path class="st5" d="M47,550.5c-3.7,0-7.6-5-8.7-6.5s-3.3-4.9-6.1-4.9c-2.7,0-4,1.4-4,3.8c0,2.8,1.9,4,3.6,4
			c0.9,0,1.8-0.7,2.3-1.5c0.5-0.9,1.5-1.4,2.5-1c0.6,0.3,1.2,1.1,0.9,2.2c-0.6,1.8-3,3.8-5.7,3.8c-4,0-7.1-3.4-7.1-7.5
			s3.4-7.5,7.5-7.5c4.4,0,7.9,5.3,8.8,6.5c0.9,1.2,3.6,4.9,6,4.9c2.3,0,4.2-1.6,4.2-3.8c0-2.1-1.9-4-4.1-4c-0.7,0-1.6,0.3-2.1,1.1
			c-0.4,0.6-1.4,1.5-2.4,1c-0.8-0.4-1.1-1.1-0.8-2.2c0.7-1.9,3.1-3.4,5.2-3.4c4.1,0,7.6,3.4,7.6,7.5C54.7,547.2,51.2,550.5,47,550.5
			z"/>
	</g>
	<g id="timeline_x5F_mask">
		<defs>
			<rect id="mask_x5F_box" x="17.5" width="45" height="566.6"/>
		</defs>
		<clipPath id="mask_x5F_box_1_">
			<use xlink:href="#mask_x5F_box"  style="overflow:visible;"/>
		</clipPath>
		<g id="black_x5F_line" class="st6">
			<path d="M61.7,122c-0.7-2.3-2.4-4.1-4.6-5c0-2.3-1.1-4.6-3-6c-2.1-1.6-4.7-2-7.2-1.3c-0.9-1.3-2.8-2.7-4.4-3V44.3
				C52.9,42.8,61,33.9,61,23c0-11.9-9.6-21.5-21.5-21.5S18,11.1,18,23c0,11.2,8.6,20.4,19.5,21.4v62.7c-1.4,0.3-2.4,1.4-3.2,2.4
				c-2.3-0.6-4.8-0.2-6.7,1.1c-2,1.4-3.2,3.5-3.3,5.9c-2.2,0.8-4,2.5-4.8,4.8c-0.8,2.3-0.4,4.7,0.9,6.6c-1.3,1.9-1.7,4.3-1,6.6
				s2.5,4.1,4.7,4.9c0.1,2.3,1.2,4.5,3.1,5.9c2,1.4,4.4,1.9,6.7,1.3c0.9,1.2,2.1,2,3.6,2.5v218c-10.9,1-19.5,10.2-19.5,21.4
				s8.6,20.4,19.5,21.4v111.7C26.6,522.6,18,531.8,18,543c0,11.9,9.6,21.5,21.5,21.5S61,554.9,61,543c0-10.8-8.1-19.8-18.5-21.3
				v-112c10.4-1.5,18.5-10.4,18.5-21.3s-8.1-19.8-18.5-21.3v-218c1.7-0.6,3-1.4,3.7-2.4c2.3,0.7,4.8,0.3,6.8-1s3.2-3.5,3.4-5.8
				c2.2-0.7,4-2.4,4.9-4.7c0.8-2.2,0.5-4.7-0.7-6.7C61.9,126.7,62.4,124.3,61.7,122 M21,23c0-10.2,8.3-18.5,18.5-18.5S58,12.8,58,23
				s-8.3,18.5-18.5,18.5S21,33.2,21,23z M58,543c0,10.2-8.3,18.5-18.5,18.5S21,553.2,21,543s8.3-18.5,18.5-18.5S58,532.8,58,543z
				 M58,388.5c0,10.2-8.3,18.5-18.5,18.5S21,398.7,21,388.5S29.3,370,39.5,370S58,378.3,58,388.5z M57.5,129.6c1.2,1.3,1.5,3,1,4.7
				c-0.6,1.6-2.1,2.8-3.8,3.1l-1.4,0.2l0.2,1.4c0.2,1.7-0.6,3.4-2,4.3c-1.5,1-3.4,1.1-5,0.3l-1.2-0.6l-0.7,1.2
				c-0.4,0.8-1.1,1.4-1.9,1.8c-1.2,0.6-2.5,0.8-3.8,0.4c-1.3-0.4-2.3-1.2-2.9-2.4l-0.7-1.2l-1.3,0.6c-1.6,0.7-3.5,0.5-5-0.5
				c-1.4-1-2.1-2.7-1.9-4.4l0.2-1.4l-1.4-0.3c-1.7-0.3-3.1-1.5-3.7-3.2c-0.5-1.6-0.1-3.4,1.1-4.6l1.1-1l-1-1.1c-1.2-1.2-1.6-3-1-4.6
				c0.6-1.7,2-2.9,3.7-3.1l1.4-0.2l-0.2-1.4c-0.2-1.7,0.5-3.4,2-4.4s3.4-1.2,5-0.4l1.3,0.6l0.7-1.2c0.5-0.9,1.3-1.6,2.2-2
				c2.5-1.2,5.4-0.1,6.6,2.3l0.7,1.4l1.4-0.7c1.7-0.9,3.8-0.7,5.3,0.4c1.4,1,2.1,2.7,1.8,4.4l-0.2,1.4l1.4,0.3
				c1.7,0.3,3.1,1.6,3.6,3.3l0,0c0.5,1.6,0,3.4-1.2,4.6l-1.1,1L57.5,129.6z"/>
			<path d="M48.1,121.1L37.2,132l-3.9-3.9c-1-1-2.6-1-3.5,0c-1,1-1,2.6,0,3.5l5.6,5.6c0.6,0.6,1.4,0.8,2.3,0.7
				c0.5-0.1,1-0.3,1.4-0.7l12.6-12.6c1-1,1-2.6,0-3.5C50.6,120.1,49,120.1,48.1,121.1z"/>
			<path d="M49,384.7h-1.6c0-0.7,0-2.2,0-2.2c0-4.2-3.4-7.5-7.6-7.5c-4.3,0-7.6,3.4-7.6,7.5c0,0,0,1.3,0,2.2h-1.7
				c-0.3,0-0.5,0.2-0.5,0.5v13.5c0,1.2,1,2.2,2.2,2.2h15.1c1.2,0,2.2-1,2.2-2.2v-13.5C49.5,384.9,49.3,384.7,49,384.7z M35.4,382.5
				c0-2.4,1.9-4.3,4.3-4.3c2.4,0,4.3,1.9,4.3,4.3v2.2h-8.6V382.5z M46.2,390.3l-7.3,7.3c-0.6,0.6-1.5,0.6-2.1,0l-3.2-3.2
				c-0.5-0.4-0.6-1.4,0.1-2c0.6-0.6,1.6-0.4,2,0l2.2,2.2l6.3-6.3c0.6-0.5,1.5-0.5,2,0C46.8,388.9,46.8,389.8,46.2,390.3z"/>
			<path d="M47,34.5v-1.1c0-2.2-0.9-4.4-2.6-5.9l-1.1-1c-1.4-1.3-1.5-3.5-0.2-5c0.1-0.1,1.4-1.3,1.4-1.3c1.7-1.5,2.6-3.6,2.6-5.9
				v-1.1c0-0.5-0.4-0.8-0.8-0.8H32.8c-0.5,0-0.8,0.4-0.8,0.8v1.1c0,2.2,1,4.4,2.6,5.9l1.1,1c1.4,1.3,1.6,3.5,0.3,5
				c-0.1,0.1-0.2,0.2-0.3,0.3l-1.1,1C32.9,29,32,31.1,32,33.4v1.1c0,0.5,0.4,0.8,0.8,0.8h13.3C46.6,35.3,47,34.9,47,34.5z
				 M44.8,32.9c0,0.3-0.3,0.6-0.6,0.6h-9.4c-0.3,0-0.6-0.3-0.6-0.6V32c0-1.6,0.9-3.1,2.3-3.9l2.5-1.4c0.3-0.2,0.7-0.2,1,0l2.5,1.4
				c1.4,0.8,2.3,2.3,2.3,3.9C44.8,32,44.8,32.9,44.8,32.9z"/>
			<path d="M47,550.5c-3.7,0-7.6-5-8.7-6.5s-3.3-4.9-6.1-4.9c-2.7,0-4,1.4-4,3.8c0,2.8,1.9,4,3.6,4c0.9,0,1.8-0.7,2.3-1.5
				c0.5-0.9,1.5-1.4,2.5-1c0.6,0.3,1.2,1.1,0.9,2.2c-0.6,1.8-3,3.8-5.7,3.8c-4,0-7.1-3.4-7.1-7.5s3.4-7.5,7.5-7.5
				c4.4,0,7.9,5.3,8.8,6.5c0.9,1.2,3.6,4.9,6,4.9c2.3,0,4.2-1.6,4.2-3.8c0-2.1-1.9-4-4.1-4c-0.7,0-1.6,0.3-2.1,1.1
				c-0.4,0.6-1.4,1.5-2.4,1c-0.8-0.4-1.1-1.1-0.8-2.2c0.7-1.9,3.1-3.4,5.2-3.4c4.1,0,7.6,3.4,7.6,7.5
				C54.7,547.2,51.2,550.5,47,550.5z"/>
		</g>
	</g>
	<g id="second">
		<path id="sec_x5F_box" class="st7" d="M80.5,410.5c-5.5,0-10-4.5-10-10v-5l-5.6-5.6c-0.8-0.8-0.8-2,0-2.8l0,0l5.6-5.6v-4
			c0-5.5,4.5-10,10-10h23c5.5,0,10,4.5,10,10v23c0,5.5-4.5,10-10,10H80.5z"/>
		<text transform="matrix(1 0 0 1 76.8544 397.4653)" class="st8 st9 st10">10</text>
	</g>
</g>
<g id="lose">
	<g id="bg_1_">
		<path id="back_1_" class="st11" d="M633.8,389V142.3c0-24-19.5-43.5-43.5-43.5s-43.5,19.5-43.5,43.5V389
			c-22.1,14.3-35.5,38.8-35.5,65.2c0,43.1,35.4,78.1,79,78.1s79-35,79-78.1C669.3,427.9,655.9,403.4,633.8,389z"/>
		<path id="back_x5F_line" class="st12" d="M627.3,391.5V141.8c0-20.4-16.6-37-37-37l0,0c-20.4,0-37,16.6-37,37v249.7
			c-34.1,20.4-45.2,64.7-24.8,98.8c20.4,34.1,64.7,45.2,98.8,24.8c34.1-20.4,45.2-64.7,24.8-98.8C646,406.1,637.5,397.6,627.3,391.5
			z"/>
	</g>
	<g id="mask_x5F_blue">
		<defs>
			<path id="mask_x5F_line" d="M625.4,392.5V142.1c0-19.3-15.7-35-35-35s-35,15.7-35,35v250.4c-33.5,19.3-45,62.1-25.6,95.6
				c19.3,33.5,62.1,45,95.6,25.6c33.5-19.3,45-62.1,25.6-95.6C644.9,407.5,636,398.7,625.4,392.5z"/>
		</defs>
		<clipPath id="mask_x5F_line_2_">
			<use xlink:href="#mask_x5F_line"  style="overflow:visible;"/>
		</clipPath>
		<path id="graph_x5F_bg" class="st13" d="M625.4,392.6V142.2c0-19.3-15.7-35-35-35s-35,15.7-35,35v250.4
			c-33.5,19.3-45,62.1-25.6,95.6c19.3,33.5,62.1,45,95.6,25.6c33.5-19.3,45-62.1,25.6-95.6C644.9,407.5,636.1,398.7,625.4,392.6z"/>
		<path id="graph_x5F_blueColor" class="st14" d="M656.4,534h-133c-6.6,0-12-8.3-12-18.4V122.2c0-10.2,5.4-18.4,12-18.4h133
			c6.6,0,12,8.3,12,18.4v393.3C668.4,525.8,663,534,656.4,534z"/>
	</g>
	<path id="light" class="st15" d="M570.9,140.7L570.9,140.7c3,0,5.5,2.5,5.5,5.5v224c0,3-2.5,5.5-5.5,5.5l0,0c-3,0-5.5-2.5-5.5-5.5
		v-224C565.4,143.1,567.9,140.7,570.9,140.7z"/>
	<text transform="matrix(1 0 0 1 513.367 80.9381)" class="st16 st17 st18">40518.</text>
	<text transform="matrix(1 0 0 1 627.0975 80.9381)" class="st19 st17 st18">32</text>
	<text id="IDAX_x5F_txt" transform="matrix(1 0 0 1 565.426 41.9381)" class="st16 st9 st20">IDAX</text>
	<g id="idax_x5F_logo">
		<path id="Path_6" class="st21" d="M550.5,462.1h-5.2v-27h5.2V462.1z"/>
		<path id="Path_7" class="st21" d="M561.1,475v-26.9h9c11,0,14.1,8.5,14.1,13.6s-3.9,13.3-14,13.3H561.1z M566.3,453.3v16.6h4.7
			c4.4-0.3,7.8-4,7.7-8.4c0.1-4.4-3.3-8-7.6-8.2L566.3,453.3z"/>
		<path id="Path_8" class="st21" d="M605,456.9h-10.6l-1.7,5.1h-5.5l8.9-26.9h7.3l8.9,26.9h-5.5L605,456.9z M596.1,451.7h7.1
			l-3.5-11L596.1,451.7z"/>
		<path id="Path_9" class="st21" d="M626.9,456.8l5.3-8.6h6.4l-8.6,13.3l8.8,13.5h-6.4l-5.4-8.8l-5.5,8.8H615l8.7-13.5l-8.5-13.3
			h6.4L626.9,456.8z"/>
	</g>
	<g id="B_x5F_sun_x5F_snow">
		<line id="Line_1" class="st22" x1="487.4" y1="257.2" x2="510.4" y2="257.2"/>
		<text transform="matrix(1 0 0 1 454.223 267.722)" class="st19 st9 st10">32</text>
		<g id="snow_3_">
			<path class="st23" d="M470.5,310.7l-1.1-4.2l-2,2l-1.6-0.3l-0.3-1.6l3.1-3.1l-0.8-3l-2.1,2.6l-0.6-3.6l-2.6,2.5l1.1,4.3l-1.1,1.2
				l-1.5-0.5l-0.7-2.8l-3.1,3.1l-1.8-0.4l-0.3-1.9l3.1-3.1l-2.8-0.8l-0.5-1.5l1.2-1l4.2,1.2l2.3-2.3l-3.1-0.5l2.5-2l-3.3-0.9
				l-3.1,3.1l-1.6-0.3l-0.3-1.6l2.1-2l-4.2-1.2l-0.6-1.8l1.4-1.2l4.2,1.1l-0.7-2.8l1.1-1.2l1.5,0.5l1.1,4.2l3.5,1l-1.3-3.3l3.2,1.2
				l-0.9-3.2l-4.3-1.1l-0.5-1.5l1.2-1l2.8,0.7l-1.1-4.2l1.2-1.4l1.8,0.6l1.1,4.2l2-2l1.6,0.3l0.3,1.6l-3.1,3.1l0.9,3.3l2.1-2.7
				l0.5,3.5l2.6-2.5l-1.1-4.3l1.1-1.2l1.5,0.5l0.7,2.8l3.1-3.1l1.8,0.4l0.3,1.9l-3.1,3.1l2.8,0.8l0.5,1.5l-1.2,1l-4.2-1.2l-2.4,2.4
				l3.2,0.5l-2.6,2.1l3.2,0.9l3.1-3.1l1.6,0.3l0.3,1.6l-2.1,2l4.2,1.2l0.6,1.8l-1.4,1.2l-4.2-1.1l0.7,2.8l-1.1,1.2l-1.5-0.5
				l-1.1-4.2l-3.3-0.9l1.3,3.3l-3.2-1.2l0.8,3l4.3,1.1l0.5,1.5l-1.2,1l-2.8-0.7l1.1,4.2l-1.2,1.4L470.5,310.7z M467,297.6l3-0.8
				l0.8-2.8l-2.1-2l-3,0.8l-0.8,2.8L467,297.6z"/>
			<path class="st24" d="M463.5,278.4l1.5,0.5l1.2,4.5l2.2-2.2l1.3,0.2l0.2,1.3l-3.1,3.1l1,3.9l2.1-2.6l0.5,3.5l3-3l-1.1-4.3l0.9-1
				l1.2,0.4l0.8,3.1l3.3-3.3l1.5,0.3l0.3,1.6l-3.3,3.3l3.1,0.8l0.4,1.2l-1,0.8l-4.3-1.2l-2.9,2.8l3.1,0.5l-2.5,2l3.8,1l3.2-3.1
				l1.3,0.2l0.2,1.3l-2.3,2.2l4.5,1.2l0.5,1.5l-1.2,1l-4.5-1.2l0.8,3.1l-0.9,1l-1.2-0.4l-1.1-4.3l-3.9-1.1l1.2,3.2l-3.1-1.2l1,3.7
				l4.3,1.2l0.4,1.2l-1,0.8l-3.1-0.8l1.2,4.5l-1,1.2l-1.5-0.5l-1.2-4.5l-2.2,2.2L466,308l-0.2-1.3l3.1-3.1l-1-3.6l-2.1,2.6l-0.5-3.6
				l-3,3l1.1,4.3l-0.9,1l-1.2-0.4l-0.8-3.1l-3.3,3.3l-1.5-0.3l-0.3-1.6l3.3-3.3l-3.1-0.8l-0.4-1.2l1-0.8l4.3,1.2l2.8-2.8l-3.1-0.5
				l2.5-2l-4-1.1l-3.2,3.1l-1.3-0.2l-0.2-1.3l2.3-2.2l-4.5-1.2l-0.5-1.5l1.2-1l4.5,1.2l-0.8-3.1l0.9-1l1.2,0.4l1.1,4.3l4.2,1.1
				l-1.3-3.3l3.1,1.2l-1-3.9l-4.3-1.2l-0.4-1.2l1-0.8l3.1,0.8l-1.2-4.5L463.5,278.4 M467,297.9l3.2-0.9l0.9-3l-2.3-2.2l-3.2,0.9
				l-0.9,3L467,297.9 M463.3,277.8l-0.2,0.3l-1,1.2l-0.2,0.2l0.1,0.3l1,3.7l-2.2-0.6l-0.3-0.1l-0.2,0.2l-1,0.8L459,284l0.1,0.3
				l0.4,1.2l0.1,0.2l0.3,0.1l4,1.1l0.7,2.6l-2.2-0.9l-1.1-0.4l0.4,1.1l0.9,2.3l-2.9-0.8l-1.1-4l-0.1-0.3l-0.2-0.1l-1.2-0.4l-0.3-0.1
				l-0.2,0.3l-0.9,1l-0.2,0.2l0.1,0.3l0.6,2.2l-3.7-1l-0.3-0.1l-0.2,0.2l-1.2,1l-0.3,0.2l0.1,0.3l0.5,1.5l0.1,0.2l0.3,0.1l3.7,1
				l-1.7,1.6l-0.2,0.2l0,0.3l0.2,1.3l0.1,0.3l0.3,0.1l1.3,0.2l0.3,0l0.2-0.2l2.9-2.9l2.7,0.8l-1.7,1.4l-0.9,0.7l1.1,0.2l2.1,0.3
				l-1.9,1.9l-4-1.1l-0.3-0.1l-0.2,0.2l-1,0.8l-0.3,0.2l0.1,0.3l0.4,1.2l0.1,0.2l0.3,0.1l2.2,0.6l-2.7,2.7l-0.2,0.2l0,0.3l0.3,1.6
				l0.1,0.3l0.3,0.1l1.5,0.3l0.3,0l0.2-0.2l2.7-2.7l0.6,2.3l0.1,0.3l0.2,0.1l1.2,0.4l0.3,0.1l0.2-0.3l0.9-1l0.2-0.2l-0.1-0.3l-1.1-4
				l2.1-2.1l0.4,2.6l0.2,1.1l0.7-0.9l1.5-1.8l0.6,2.4l-2.9,2.9l-0.2,0.2l0,0.3l0.2,1.3l0.1,0.3l0.3,0.1l1.3,0.2l0.3,0l0.2-0.2
				l1.6-1.6l1,3.7l0.1,0.3l0.2,0.1l1.5,0.5l0.3,0.1l0.2-0.3l1-1.2l0.2-0.2l-0.1-0.3l-1-3.7l2.2,0.6l0.3,0.1l0.2-0.2l1-0.8l0.3-0.2
				l-0.1-0.3l-0.4-1.2l-0.1-0.2l-0.3-0.1l-4-1.1l-0.6-2.4l2.2,0.9l1.1,0.4l-0.4-1.1l-0.9-2.3l2.7,0.7l1.1,4l0.1,0.3l0.2,0.1l1.2,0.4
				l0.3,0.1l0.2-0.3l0.9-1l0.2-0.2l-0.1-0.3l-0.6-2.2l3.7,1l0.3,0.1l0.2-0.2l1.2-1l0.3-0.2l-0.1-0.3l-0.5-1.5l-0.1-0.2l-0.3-0.1
				l-3.7-1l1.7-1.6l0.2-0.2l0-0.3l-0.2-1.3l-0.1-0.3l-0.3-0.1l-1.3-0.2l-0.3,0l-0.2,0.2l-2.9,2.9l-2.6-0.7l1.8-1.4l0.9-0.7l-1.1-0.2
				l-2.2-0.3l2-1.9l4,1.1l0.3,0.1l0.2-0.2l1-0.8l0.3-0.2l-0.1-0.3l-0.4-1.2l-0.1-0.2l-0.3-0.1l-2.2-0.6l2.7-2.7l0.2-0.2l0-0.3
				l-0.3-1.6l-0.1-0.3l-0.3-0.1l-1.5-0.3l-0.3,0l-0.2,0.2l-2.7,2.7l-0.6-2.3l-0.1-0.3l-0.2-0.1l-1.2-0.4l-0.3-0.1l-0.2,0.3l-0.9,1
				l-0.2,0.2l0.1,0.3l1,4l-2.1,2.1l-0.4-2.5l-0.2-1.1l-0.7,0.9l-1.5,1.8l-0.7-2.7l2.9-2.9l0.2-0.2l0-0.3l-0.2-1.3l-0.1-0.3l-0.3-0.1
				l-1.3-0.2l-0.3,0l-0.2,0.2l-1.6,1.6l-1-3.7l-0.1-0.3l-0.2-0.1l-1.5-0.5L463.3,277.8L463.3,277.8z M465.9,293.1l2.7-0.7l1.9,1.8
				l-0.8,2.5l-2.7,0.7l-1.9-1.8L465.9,293.1L465.9,293.1z"/>
		</g>
		<g id="sun_1_" transform="translate(-147 -43)">
			<g transform="matrix(1, 0, 0, 1, 128.08, 63.26)">
				
					<linearGradient id="Union_1-2_2_" gradientUnits="userSpaceOnUse" x1="22.5896" y1="1320.4073" x2="21.9346" y2="1319.6564" gradientTransform="matrix(34.845 0 0 -35.83 -288.5583 47499.7891)">
					<stop  offset="0" style="stop-color:#FCF051"/>
					<stop  offset="1" style="stop-color:#EE984C"/>
				</linearGradient>
				<path id="Union_1-2_1_" class="st25" d="M485.3,213.5l-2.8,3.5l-0.3-4.7L476,218l3.6-7.4l-4.5,1.2l2.6-3.8l-8.4,1.1l7.4-3.9
					l-4.5-1.6l4.4-1.6l-7.3-3.9l8.3,1.1l-2.7-3.9l4.6,1.3L476,189l6,5.6l0.2-4.6l3,3.7l1.5-8.1l1.5,8l2.8-3.5l0.3,4.7l6.2-5.7
					l-3.6,7.4l4.5-1.2l-2.6,3.8l8.4-1.1l-7.4,3.9l4.5,1.6l-4.4,1.6l7.3,3.9l-8.3-1.1l2.7,3.9l-4.6-1.3l3.6,7.4l-6-5.6l-0.2,4.6
					l-3.1-3.7l-1.5,8.1L485.3,213.5z"/>
			</g>
			<g id="Layer_7_1_" transform="translate(443.85 237.115)">
				<g id="Path_12_1_" transform="translate(-448.7 -242.158)">
					
						<linearGradient id="SVGID_6_" gradientUnits="userSpaceOnUse" x1="157.0621" y1="1394.146" x2="156.6501" y2="1393.4351" gradientTransform="matrix(18.2939 0 0 -18.4633 -2249.5916 26004.9609)">
						<stop  offset="0" style="stop-color:#FDE166"/>
						<stop  offset="1" style="stop-color:#FEA843"/>
					</linearGradient>
					<path class="st26" d="M619.6,280.8c-5,0-9.1-4.1-9.1-9.2c0-5.1,4.1-9.2,9.1-9.2s9.1,4.1,9.1,9.2
						C628.7,276.7,624.6,280.8,619.6,280.8z"/>
					<path class="st27" d="M619.6,262.8c-4.8,0-8.6,3.9-8.6,8.7c0,4.8,3.9,8.7,8.6,8.7s8.6-3.9,8.6-8.7
						C628.2,266.8,624.3,262.8,619.6,262.8 M619.6,261.8c5.3,0,9.6,4.4,9.6,9.7c0,5.4-4.3,9.7-9.6,9.7c-5.3,0-9.6-4.4-9.6-9.7
						C609.9,266.2,614.2,261.8,619.6,261.8z"/>
				</g>
			</g>
			
				<linearGradient id="Path_33_2_" gradientUnits="userSpaceOnUse" x1="153.5238" y1="1391.5872" x2="153.3138" y2="1391.4452" gradientTransform="matrix(12.3976 0 0 -14.5896 -1293.2754 20572.8379)">
				<stop  offset="0" style="stop-color:#FF6233;stop-opacity:0"/>
				<stop  offset="1" style="stop-color:#FF6233"/>
			</linearGradient>
			<path id="Path_33_1_" class="st28" d="M606.9,261.4c0.2,3.2,1.5,6.2,3.6,8.6c2,2.3,4.5,4.2,7.3,5.4c0,0-6,2.6-10.7-3.5
				C603.4,266,606.9,261.4,606.9,261.4z"/>
			
				<linearGradient id="Path_34_2_" gradientUnits="userSpaceOnUse" x1="141.82" y1="1340.8597" x2="141.869" y2="1340.2788" gradientTransform="matrix(-12.7348 1.3385 0.5622 5.3493 1668.9067 -7087.4507)">
				<stop  offset="0" style="stop-color:#FFFFFF"/>
				<stop  offset="1" style="stop-color:#FDCF58;stop-opacity:0"/>
			</linearGradient>
			<path id="Path_34_1_" class="st29" d="M616.2,275.5c-2.2,0.4-4.4-0.1-6.3-1.2c-1.5-1,4.1-3.9,6.3-4.1c2.2-0.2,5.9-0.8,6.1,1.3
				C621,273.6,618.7,275.1,616.2,275.5z"/>
			
				<linearGradient id="Ellipse_5_2_" gradientUnits="userSpaceOnUse" x1="138.8021" y1="1405.5645" x2="138.7821" y2="1404.8674" gradientTransform="matrix(6.2678 4.8997 4.5227 -5.7855 -6607.3994 7711.7173)">
				<stop  offset="0" style="stop-color:#FFFFFF"/>
				<stop  offset="1" style="stop-color:#FDD059;stop-opacity:9.000000e-02"/>
			</linearGradient>
			<path id="Ellipse_5_1_" class="st30" d="M619.4,259.8c1.7,1.4,2.1,3.7,0.9,5.3s-3.7,1.8-5.4,0.4c-1.7-1.4-2.1-3.7-0.9-5.3
				C615.2,258.7,617.7,258.5,619.4,259.8z"/>
		</g>
	</g>
</g>
<g id="win">
	<g id="bg">
		<path id="back_2_" class="st11" d="M246,389V142.3c0-24-19.5-43.5-43.5-43.5S159,118.3,159,142.3V389
			c-22.1,14.3-35.5,38.8-35.5,65.2c0,43.1,35.4,78.1,79,78.1s79-35,79-78.1C281.5,427.9,268.1,403.4,246,389z"/>
		<path id="back_x5F_line_1_" class="st12" d="M239.5,391.5V141.8c0-20.4-16.6-37-37-37l0,0c-20.4,0-37,16.6-37,37v249.7
			c-34.1,20.4-45.2,64.7-24.8,98.8s64.7,45.2,98.8,24.8c34.1-20.4,45.2-64.7,24.8-98.8C258.2,406.1,249.7,397.6,239.5,391.5z"/>
	</g>
	<g id="mask_x5F_red">
		<defs>
			<path id="mask_x5F_line_1_" d="M237.4,392.4V142c0-19.3-15.7-35-35-35s-35,15.7-35,35v250.4c-33.5,19.3-45,62.1-25.6,95.6
				s62.1,45,95.6,25.6c33.5-19.3,45-62.1,25.6-95.6C256.9,407.4,248,398.6,237.4,392.4z"/>
		</defs>
		<clipPath id="mask_x5F_line_3_">
			<use xlink:href="#mask_x5F_line_1_"  style="overflow:visible;"/>
		</clipPath>
		<path id="graph_x5F_bg_1_" class="st31" d="M237.4,392.6V142.2c0-19.3-15.7-35-35-35s-35,15.7-35,35v250.4
			c-33.5,19.3-45,62.1-25.6,95.6s62.1,45,95.6,25.6c33.5-19.3,45-62.1,25.6-95.6C256.9,407.5,248.1,398.7,237.4,392.6z"/>
		<path id="graph_x5F_redColor" class="st32" d="M268.4,532.5h-133c-6.6,0-12-8.3-12-18.5V120c0-10.2,5.4-18.5,12-18.5h133
			c6.6,0,12,8.3,12,18.5v394C280.4,524.2,275,532.5,268.4,532.5z"/>
	</g>
	<path id="light_1_" class="st15" d="M182.9,140.7L182.9,140.7c3,0,5.5,2.5,5.5,5.5v224c0,3-2.5,5.5-5.5,5.5l0,0
		c-3,0-5.5-2.5-5.5-5.5v-224C177.4,143.1,179.9,140.7,182.9,140.7z"/>
	<text transform="matrix(1 0 0 1 125.309 80.9381)" class="st16 st17 st18">40518.</text>
	<text transform="matrix(1 0 0 1 239.0395 80.9381)" class="st33 st17 st18">62</text>
	<text id="BINANCE_x5F_txt" transform="matrix(1 0 0 1 160.426 41.9381)" class="st16 st9 st20">BINANCE</text>
	<g id="binance_x5F_logo">
		<path id="Path_19" class="st21" d="M153.9,486.5v-13.7h5.2c3.9,0,5.6,0.8,5.8,3.6c0,1.3-0.8,2.5-2,2.9c1.7,0.2,2.9,1.7,2.7,3.3
			c0,3.7-4.1,3.9-6.1,3.9H153.9z M156.9,478.3h2.6c1.5,0,2.4-0.3,2.4-1.4c0-0.9-0.6-1.4-2.5-1.4h-2.5L156.9,478.3z M156.9,480.7v3.1
			h2.7c1,0,3.1,0.1,3.1-1.4c0-1.7-1.8-1.7-3.1-1.7H156.9z"/>
		<path id="Path_20" class="st21" d="M172.6,486.5h-2.9v-13.7h2.9V486.5z"/>
		<path id="Path_21" class="st21" d="M189.2,486.5h-2.5l-6.8-8.9v8.9H177v-13.7h2.8l6.5,8.5v-8.5h2.9L189.2,486.5z"/>
		<path id="Path_22" class="st21" d="M202.7,483.4h-5.8l-1.3,3.1h-3.1l5.9-13.9h2.7l5.9,13.9H204L202.7,483.4z M198,480.8h3.6
			l-1.8-4.6L198,480.8z"/>
		<path id="Path_23" class="st21" d="M222.6,486.5h-2.9l-6.5-9v9h-2.9v-13.7h2.9l6.5,8.6v-8.6h2.9L222.6,486.5z"/>
		<path id="Path_24" class="st21" d="M239,484.2c-1.4,1.6-3.5,2.5-5.6,2.4c-2.8,0-7-1.7-7-7.1c0.1-3.9,3.2-7,7.1-7
			c3.8,0,5.4,2.1,5.4,2.1l-1.8,2.1c-0.8-0.9-2-1.5-3.2-1.5c-2.4,0-4.4,1.9-4.4,4.3c0,2.3,1.8,4.2,4.1,4.4c1.4,0,2.6-0.6,3.6-1.6
			L239,484.2z"/>
		<path id="Path_25" class="st21" d="M252,480.9h-6.5v2.9h7.5v2.8h-10.5v-13.7h10.3v2.7h-7.4v2.6h6.5L252,480.9z"/>
		<g id="Group_14">
			
				<rect id="Rectangle_3" x="218.8" y="434.7" transform="matrix(0.7071 -0.7071 0.7071 0.7071 -244.9643 286.0534)" class="st21" width="8" height="8.1"/>
			
				<rect id="Rectangle_4" x="199.4" y="434.7" transform="matrix(0.7071 -0.7071 0.7071 0.7071 -250.6651 272.2903)" class="st21" width="8" height="8.1"/>
			
				<rect id="Rectangle_5" x="179.6" y="434.7" transform="matrix(0.7071 -0.7071 0.7071 0.7071 -256.4582 258.3878)" class="st21" width="8.1" height="8.1"/>
			<path id="Path_26" class="st21" d="M213.2,442.6l-10,10l-9.9-9.9l-5.7,5.7l15.6,15.6l15.7-15.7L213.2,442.6z"/>
		</g>
		<path id="Path_27" class="st21" d="M218.8,429l-15.6-15.6L187.7,429l5.7,5.7l9.8-9.8l9.8,9.8L218.8,429z"/>
	</g>
	<g id="R_x5F_sun_x5F_snow">
		<line id="Line_2" class="st22" x1="282.4" y1="200.2" x2="305.4" y2="200.2"/>
		<text transform="matrix(1 0 0 1 311.223 208.722)" class="st33 st9 st10">62</text>
		<g id="snow_2_">
			<path class="st23" d="M327.9,251.7l-1.1-4.2l-2,2l-1.6-0.3l-0.3-1.6l3.1-3.1l-0.8-3l-2.1,2.6l-0.6-3.6l-2.6,2.5l1.1,4.3l-1.1,1.2
				l-1.5-0.5l-0.7-2.8l-3.1,3.1l-1.8-0.4l-0.3-1.9l3.1-3.1l-2.8-0.8l-0.5-1.5l1.2-1l4.2,1.2l2.3-2.3l-3.1-0.5l2.5-2l-3.3-0.9
				l-3.1,3.1l-1.6-0.3l-0.3-1.6l2.1-2l-4.2-1.2l-0.6-1.8l1.4-1.2l4.2,1.1l-0.7-2.8l1-1.2l1.5,0.5l1.1,4.2l3.5,1l-1.3-3.3l3.2,1.2
				l-0.9-3.2l-4.3-1.1l-0.5-1.5l1.2-1l2.8,0.8l-1.1-4.2l1.2-1.4l1.8,0.6l1.1,4.2l2-2l1.6,0.3l0.3,1.6l-3.1,3.1l0.9,3.3l2.1-2.7
				l0.5,3.5l2.6-2.5l-1.1-4.3l1.1-1.2l1.5,0.5l0.7,2.8l3.1-3.1l1.8,0.4l0.3,1.9l-3.1,3.1l2.8,0.8l0.5,1.5l-1.2,1l-4.2-1.2l-2.4,2.4
				l3.2,0.5l-2.6,2.1l3.2,0.9l3.1-3.1l1.6,0.3l0.3,1.6l-2.1,2l4.2,1.2l0.6,1.8l-1.4,1.2l-4.2-1.1l0.7,2.8l-1.1,1.2l-1.5-0.5
				l-1.1-4.2l-3.3-0.9l1.3,3.3l-3.2-1.2l0.8,3l4.3,1.1l0.5,1.5l-1.2,1l-2.8-0.8l1.1,4.2l-1.2,1.4L327.9,251.7z M324.4,238.6l3-0.8
				l0.8-2.8l-2.1-2l-3,0.8l-0.8,2.8L324.4,238.6z"/>
			<path class="st24" d="M320.8,219.4l1.5,0.5l1.2,4.5l2.2-2.2l1.3,0.2l0.2,1.3l-3.1,3.1l1,3.9l2.1-2.6l0.5,3.5l3-3l-1.1-4.3l0.9-1
				l1.2,0.4l0.8,3.1l3.3-3.3l1.5,0.3l0.3,1.6l-3.3,3.3l3.1,0.8l0.4,1.2l-1,0.8l-4.3-1.2l-2.9,2.8l3.1,0.5l-2.5,2l3.8,1l3.2-3.1
				l1.3,0.2l0.2,1.3l-2.3,2.2l4.5,1.2l0.5,1.5l-1.2,1L336,240l0.8,3.1l-0.9,1l-1.2-0.4l-1.1-4.3l-3.9-1.1l1.2,3.2l-3.1-1.2l1,3.7
				l4.3,1.2l0.4,1.2l-1,0.8l-3.1-0.8l1.2,4.5l-1,1.2l-1.5-0.5l-1.2-4.5l-2.2,2.2l-1.3-0.2l-0.2-1.3l3.1-3.1l-1-3.6l-2.1,2.6
				l-0.5-3.6l-3,3l1.1,4.3l-0.9,1l-1.2-0.4l-0.8-3.1l-3.3,3.3l-1.5-0.3l-0.3-1.6l3.3-3.3l-3.1-0.8l-0.4-1.2l1-0.8l4.3,1.2l2.8-2.8
				l-3.1-0.5l2.5-2l-4-1.1l-3.2,3.1l-1.3-0.2l-0.2-1.3l2.3-2.2l-4.5-1.2l-0.5-1.5l1.2-1l4.5,1.2l-0.8-3.1l0.9-1l1.2,0.4l1.1,4.3
				l4.2,1.1l-1.3-3.3l3.1,1.2l-1-3.9l-4.3-1.2l-0.4-1.2l1-0.8l3.1,0.8l-1.2-4.5L320.8,219.4 M324.3,238.9l3.2-0.9l0.9-3l-2.3-2.2
				l-3.2,0.9l-0.9,3L324.3,238.9 M320.7,218.8l-0.2,0.3l-1,1.2l-0.2,0.2l0.1,0.3l1,3.7l-2.2-0.6l-0.3-0.1l-0.2,0.2l-1,0.8l-0.3,0.2
				l0.1,0.3l0.4,1.2l0.1,0.2l0.3,0.1l4,1.1l0.7,2.6l-2.2-0.9l-1.1-0.4l0.4,1.1l0.9,2.3l-2.9-0.8l-1.1-4l-0.1-0.3l-0.2-0.1l-1.2-0.4
				l-0.3-0.1l-0.2,0.3l-0.9,1l-0.2,0.2l0.1,0.3l0.6,2.2l-3.7-1l-0.3-0.1l-0.2,0.2l-1.2,1l-0.3,0.2l0.1,0.3l0.5,1.5l0.1,0.2l0.3,0.1
				l3.7,1l-1.7,1.6l-0.2,0.2l0,0.3l0.2,1.3l0.1,0.3l0.3,0.1l1.3,0.2l0.3,0l0.2-0.2l2.9-2.9l2.7,0.8l-1.7,1.4l-0.9,0.7l1.1,0.2
				l2.1,0.3l-1.9,1.9l-4-1.1l-0.3-0.1l-0.2,0.2l-1,0.8l-0.3,0.2l0.1,0.3l0.4,1.2l0.1,0.2l0.3,0.1l2.2,0.6l-2.7,2.7l-0.2,0.2l0,0.3
				l0.3,1.6l0.1,0.3l0.3,0.1l1.5,0.3l0.3,0l0.2-0.2l2.7-2.7l0.6,2.3l0.1,0.3l0.2,0.1l1.2,0.4l0.3,0.1l0.2-0.3l0.9-1l0.2-0.2
				l-0.1-0.3l-1.1-4l2.1-2.1l0.4,2.6l0.2,1.1l0.7-0.9l1.5-1.8l0.6,2.4l-2.9,2.9l-0.2,0.2l0,0.3l0.2,1.3l0.1,0.3l0.3,0.1l1.3,0.2
				l0.3,0l0.2-0.2l1.6-1.6l1,3.7l0.1,0.3l0.2,0.1l1.5,0.5l0.3,0.1l0.2-0.3l1-1.2l0.2-0.2l-0.1-0.3l-1-3.7l2.2,0.6l0.3,0.1l0.2-0.2
				l1-0.8l0.3-0.2l-0.1-0.3l-0.4-1.2l-0.1-0.2l-0.3-0.1l-4-1.1l-0.6-2.4l2.2,0.9l1.1,0.4l-0.4-1.1l-0.9-2.3l2.7,0.7l1.1,4l0.1,0.3
				l0.2,0.1l1.2,0.4l0.3,0.1l0.2-0.3l0.9-1l0.2-0.2l-0.1-0.3l-0.6-2.2l3.7,1l0.3,0.1l0.2-0.2l1.2-1l0.3-0.2l-0.1-0.3l-0.5-1.5
				l-0.1-0.2l-0.3-0.1l-3.7-1l1.7-1.6l0.2-0.2l0-0.3l-0.2-1.3l-0.1-0.3l-0.3-0.1l-1.3-0.2l-0.3,0l-0.2,0.2l-2.9,2.9l-2.6-0.7
				l1.8-1.4l0.9-0.7l-1.1-0.2l-2.2-0.3l2-1.9l4,1.1l0.3,0.1l0.2-0.2l1-0.8l0.3-0.2l-0.1-0.3l-0.4-1.2l-0.1-0.2l-0.3-0.1l-2.2-0.6
				l2.7-2.7l0.2-0.2l0-0.3l-0.3-1.6l-0.1-0.3l-0.3-0.1l-1.5-0.3l-0.3,0l-0.2,0.2l-2.7,2.7l-0.6-2.3l-0.1-0.3l-0.2-0.1l-1.2-0.4
				l-0.3-0.1l-0.2,0.3l-0.9,1l-0.2,0.2l0.1,0.3l1,4l-2.1,2.1l-0.4-2.5l-0.2-1.1l-0.7,0.9l-1.5,1.8l-0.7-2.7l2.9-2.9l0.2-0.2l0-0.3
				l-0.2-1.3l-0.1-0.3l-0.3-0.1l-1.3-0.2l-0.3,0l-0.2,0.2l-1.6,1.6l-1-3.7l-0.1-0.3l-0.2-0.1l-1.5-0.5L320.7,218.8L320.7,218.8z
				 M323.3,234.1l2.7-0.7l1.9,1.8l-0.8,2.5l-2.7,0.7l-1.9-1.8L323.3,234.1L323.3,234.1z"/>
		</g>
		<g id="sun" transform="translate(-147 -43)">
			<g transform="matrix(1, 0, 0, 1, 128.08, 63.26)">
				
					<linearGradient id="Union_1-2_3_" gradientUnits="userSpaceOnUse" x1="18.4943" y1="1322.0261" x2="17.8393" y2="1321.2751" gradientTransform="matrix(34.845 0 0 -35.83 -288.5583 47499.7891)">
					<stop  offset="0" style="stop-color:#FCF051"/>
					<stop  offset="1" style="stop-color:#EE984C"/>
				</linearGradient>
				<path id="Union_1-2" class="st34" d="M342.6,155.5l-2.8,3.5l-0.3-4.7l-6.2,5.7l3.6-7.4l-4.5,1.2l2.6-3.8l-8.4,1.1l7.4-3.9
					l-4.5-1.6l4.4-1.6l-7.3-3.9l8.3,1.1l-2.7-3.9l4.6,1.3l-3.6-7.4l6,5.6l0.2-4.6l3,3.7l1.5-8.1l1.5,8l2.8-3.5l0.3,4.7l6.2-5.7
					l-3.6,7.4l4.5-1.2l-2.6,3.8l8.4-1.1l-7.4,3.9l4.5,1.6l-4.4,1.6l7.3,3.9l-8.3-1.1l2.7,3.9l-4.6-1.3l3.6,7.4l-6-5.6l-0.2,4.6
					l-3.1-3.7l-1.5,8.1L342.6,155.5z"/>
			</g>
			<g id="Layer_7" transform="translate(443.85 237.115)">
				<g id="Path_12" transform="translate(-448.7 -242.158)">
					
						<linearGradient id="SVGID_7_" gradientUnits="userSpaceOnUse" x1="149.2617" y1="1397.2874" x2="148.8497" y2="1396.5764" gradientTransform="matrix(18.2939 0 0 -18.4633 -2249.5916 26004.9609)">
						<stop  offset="0" style="stop-color:#FDE166"/>
						<stop  offset="1" style="stop-color:#FEA843"/>
					</linearGradient>
					<path class="st35" d="M476.9,222.8c-5,0-9.1-4.1-9.1-9.2c0-5.1,4.1-9.2,9.1-9.2c5,0,9.1,4.1,9.1,9.2
						C486,218.7,481.9,222.8,476.9,222.8z"/>
					<path class="st27" d="M476.9,204.8c-4.8,0-8.6,3.9-8.6,8.7c0,4.8,3.9,8.7,8.6,8.7c4.8,0,8.6-3.9,8.6-8.7
						C485.5,208.8,481.6,204.8,476.9,204.8 M476.9,203.8c5.3,0,9.6,4.4,9.6,9.7c0,5.4-4.3,9.7-9.6,9.7s-9.6-4.4-9.6-9.7
						C467.2,208.2,471.5,203.8,476.9,203.8z"/>
				</g>
			</g>
			
				<linearGradient id="Path_33_3_" gradientUnits="userSpaceOnUse" x1="142.0136" y1="1395.5626" x2="141.8036" y2="1395.4207" gradientTransform="matrix(12.3976 0 0 -14.5896 -1293.2754 20572.8379)">
				<stop  offset="0" style="stop-color:#FF6233;stop-opacity:0"/>
				<stop  offset="1" style="stop-color:#FF6233"/>
			</linearGradient>
			<path id="Path_33" class="st36" d="M464.2,203.4c0.2,3.2,1.5,6.2,3.6,8.6c2,2.3,4.5,4.2,7.3,5.4c0,0-6,2.6-10.7-3.5
				C460.7,208,464.2,203.4,464.2,203.4z"/>
			
				<linearGradient id="Path_34_3_" gradientUnits="userSpaceOnUse" x1="152.4295" y1="1327.3625" x2="152.4785" y2="1326.7815" gradientTransform="matrix(-12.7348 1.3385 0.5622 5.3493 1668.9067 -7087.4507)">
				<stop  offset="0" style="stop-color:#FFFFFF"/>
				<stop  offset="1" style="stop-color:#FDCF58;stop-opacity:0"/>
			</linearGradient>
			<path id="Path_34" class="st37" d="M473.5,217.5c-2.2,0.4-4.4-0.1-6.3-1.2c-1.5-1,4.1-3.9,6.3-4.1s5.9-0.8,6.1,1.3
				C478.3,215.6,476.1,217.1,473.5,217.5z"/>
			
				<linearGradient id="Ellipse_5_3_" gradientUnits="userSpaceOnUse" x1="120.1807" y1="1399.8192" x2="120.1607" y2="1399.1222" gradientTransform="matrix(6.2678 4.8997 4.5227 -5.7855 -6607.3994 7711.7173)">
				<stop  offset="0" style="stop-color:#FFFFFF"/>
				<stop  offset="1" style="stop-color:#FDD059;stop-opacity:9.000000e-02"/>
			</linearGradient>
			<path id="Ellipse_5" class="st38" d="M476.7,201.8c1.7,1.4,2.1,3.7,0.9,5.3c-1.2,1.6-3.7,1.8-5.4,0.4c-1.7-1.4-2.1-3.7-0.9-5.3
				S475,200.5,476.7,201.8z"/>
		</g>
	</g>
</g>
</svg>
