<?xml version="1.0" encoding="utf-8"?>
<!-- Generator: Adobe Illustrator 23.0.4, SVG Export Plug-In . SVG Version: 6.00 Build 0)  -->
<svg version="1.1" id="Layer_1" xmlns="http://www.w3.org/2000/svg" xmlns:xlink="http://www.w3.org/1999/xlink" x="0px" y="0px"
     viewBox="0 0 99 567" style="enable-background:new 0 0 99 567;" xml:space="preserve">
<style type="text/css">
	.st0{fill:url(#SVGID_1_);}
	.st1{fill:url(#SVGID_2_);}
	.st2{fill:url(#SVGID_3_);}
	.st3{fill:url(#SVGID_4_);}
	.st4{fill:url(#SVGID_5_);}
	.st5{fill:#8614F6;}
	.st6{clip-path:url(#mask_x5F_box_1_);}
	.st7{fill:#161133;}
	.st8{fill:#C42A26;}
	.st9{fill:#FFFFFF;}
	.st10{font-family:'Roboto-Medium';}
	.st11{font-size:24px;}
</style>
  <g id="gradation_x5F_line">

		<linearGradient id="SVGID_1_" gradientUnits="userSpaceOnUse" x1="23.5085" y1="787.6886" x2="23.5085" y2="1308.448" gradientTransform="matrix(1 0 0 1 0 -766)">
		<stop offset="0" style="stop-color:#D31741"/>
      <stop offset="1" style="stop-color:#8614F6"/>
	</linearGradient>
    <path class="st0" d="M45.2,122.5l-1.4,0.4L45.2,122.5c-0.7-2.3-2.4-4.1-4.6-5c0-2.3-1.1-4.6-3-6c-2.1-1.6-4.7-2-7.2-1.3
		c-0.9-1.3-2.2-2.3-3.8-2.8c-0.2-0.1-0.4-0.1-0.6-0.2V44.8c10.4-1.5,18.5-10.4,18.5-21.3C44.5,11.6,34.9,2,23,2S1.5,11.6,1.5,23.5
		c0,11.2,8.6,20.4,19.5,21.4v62.7c-0.1,0.1-0.3,0.1-0.4,0.2c-1.1,0.5-2,1.2-2.8,2.2c-2.3-0.6-4.8-0.2-6.7,1.1
		c-2,1.4-3.2,3.5-3.3,5.9c-2.2,0.8-4,2.5-4.8,4.8s-0.4,4.7,0.9,6.6c-1.3,1.9-1.7,4.3-1,6.6s2.5,4.1,4.7,4.9c0.1,2.3,1.2,4.5,3.1,5.9
		c2,1.4,4.4,1.9,6.7,1.3c0.9,1.2,2.1,2,3.6,2.5v218c-10.9,1-19.5,10.2-19.5,21.4s8.6,20.4,19.5,21.4v111.7
		c-10.9,1-19.5,10.2-19.5,21.4c0,11.9,9.6,21.5,21.5,21.5s21.5-9.6,21.5-21.5c0-10.8-8.1-19.8-18.5-21.3v-112
		c10.4-1.5,18.5-10.4,18.5-21.3s-8.1-19.8-18.5-21.3v-218c0.5-0.2,1-0.4,1.5-0.6c0.9-0.5,1.6-1.1,2.2-1.8c2.3,0.7,4.8,0.3,6.8-1
		s3.2-3.5,3.4-5.8c2.2-0.7,4-2.4,4.9-4.7c0.8-2.2,0.5-4.7-0.7-6.7C45.4,127.2,45.9,124.8,45.2,122.5z M4.5,23.5
		C4.5,13.3,12.8,5,23,5s18.5,8.3,18.5,18.5S33.2,42,23,42S4.5,33.7,4.5,23.5z M41.5,543.5c0,10.2-8.3,18.5-18.5,18.5
		s-18.5-8.3-18.5-18.5S12.8,525,23,525S41.5,533.3,41.5,543.5z M41.5,389c0,10.2-8.3,18.5-18.5,18.5S4.5,399.2,4.5,389
		s8.3-18.5,18.5-18.5S41.5,378.8,41.5,389z M41,130.1c1.2,1.3,1.5,3,1,4.7c-0.6,1.6-2.1,2.8-3.8,3.1l-1.4,0.2l0.2,1.4
		c0.2,1.7-0.6,3.4-2,4.3c-1.5,1-3.4,1.1-5,0.3l-1.2-0.6l-0.7,1.2c-0.4,0.8-1.1,1.4-1.9,1.8c-1.2,0.6-2.5,0.8-3.8,0.4
		c-1.3-0.4-2.3-1.2-2.9-2.4l-0.7-1.2l-1.3,0.6c-1.6,0.7-3.5,0.5-5-0.5c-1.4-1-2.1-2.7-1.9-4.4l0.2-1.4l-1.4-0.3
		c-1.7-0.3-3.1-1.5-3.7-3.2c-0.5-1.6-0.1-3.4,1.1-4.6l1.1-1l-1-1.1c-1.2-1.2-1.6-3-1-4.6c0.6-1.7,2-2.9,3.7-3.1l1.4-0.2l-0.2-1.4
		c-0.2-1.7,0.5-3.4,2-4.4s3.4-1.2,5-0.4l1.3,0.6l0.7-1.2c0.5-0.9,1.3-1.6,2.2-2c2.5-1.2,5.4-0.1,6.6,2.3l0.7,1.4l1.4-0.7
		c1.7-0.9,3.8-0.7,5.3,0.4c1.4,1,2.1,2.7,1.8,4.4l-0.2,1.4l1.4,0.3c1.7,0.3,3.1,1.6,3.6,3.3l0,0c0.5,1.6,0,3.4-1.2,4.6l-1.1,1
		L41,130.1z"/>

	<linearGradient id="SVGID_2_" gradientUnits="userSpaceOnUse" x1="24.25" y1="787.6886" x2="24.25" y2="1308.448" gradientTransform="matrix(1 0 0 1 0 -766)">
		<stop offset="0" style="stop-color:#D31741"/>
		<stop offset="1" style="stop-color:#8614F6"/>
	</linearGradient>
    <path class="st1" d="M31.6,121.6l-10.9,10.9l-3.9-3.9c-1-1-2.6-1-3.5,0c-1,1-1,2.6,0,3.5l5.6,5.6c0.6,0.6,1.4,0.8,2.3,0.7
		c0.5-0.1,1-0.3,1.4-0.7l12.6-12.6c1-1,1-2.6,0-3.5C34.1,120.6,32.5,120.6,31.6,121.6z"/>

	<linearGradient id="SVGID_3_" gradientUnits="userSpaceOnUse" x1="19.539" y1="929.8972" x2="19.539" y2="1255.623" gradientTransform="matrix(1 0 0 1 0 -766)">
		<stop offset="0" style="stop-color:#D31741"/>
		<stop offset="1" style="stop-color:#8614F6"/>
	</linearGradient>
    <path class="st2" d="M10.3,385.2L10.3,385.2c-0.3,0-0.5,0.2-0.5,0.5v13.5c0,1.2,1,2.2,2.2,2.2h15.1l0,0c1.2,0,2.2-1,2.2-2.2v-13.5
		c0-0.3-0.2-0.5-0.5-0.5H10.3z M15.5,392.9l2.2,2.2l6.3-6.3c0.6-0.5,1.5-0.5,2,0c0.6,0.6,0.6,1.5,0,2l-7.3,7.3
		c-0.2,0.2-0.5,0.4-0.8,0.4c-0.1,0-0.2,0-0.3,0c-0.4,0-0.7-0.2-1-0.4l-3.2-3.2c-0.3-0.3-0.4-0.6-0.4-1c0-0.8,0.6-1.4,1.4-1.4
		C14.8,392.5,15.2,392.6,15.5,392.9z"/>

	<linearGradient id="SVGID_4_" gradientUnits="userSpaceOnUse" x1="30.5605" y1="1008.9915" x2="30.5605" y2="1204.0249" gradientTransform="matrix(1 0 0 1 0 -766)">
		<stop offset="0" style="stop-color:#D31741"/>
		<stop offset="1" style="stop-color:#8614F6"/>
	</linearGradient>
    <path class="st3" d="M23,383c0,0,0,1.3,0,2.2c1,0,14.6,0,15.2,0c0-0.7,0-2.2,0-2.2c0-4.2-3.4-7.5-7.6-7.5
		C26.3,375.5,23,378.9,23,383z M26.2,383c0-2.4,1.9-4.3,4.3-4.3s4.3,1.9,4.3,4.3v2.2h-8.6V383z"/>

	<linearGradient id="SVGID_5_" gradientUnits="userSpaceOnUse" x1="23.05" y1="787.6886" x2="23.05" y2="1308.448" gradientTransform="matrix(1 0 0 1 0 -766)">
		<stop offset="0" style="stop-color:#D31741"/>
		<stop offset="1" style="stop-color:#8614F6"/>
	</linearGradient>
    <path class="st4" d="M30.5,35v-1.1c0-2.2-0.9-4.4-2.6-5.9l-1.1-1c-1.4-1.3-1.5-3.5-0.2-5c0.1-0.1,0.2-0.2,0.3-0.3l1.1-1
		c1.7-1.5,2.6-3.6,2.6-5.9v-1.1c0-0.5-0.4-0.8-0.8-0.8H16.3c-0.5,0-0.8,0.4-0.8,0.8v1.1c0,2.2,1,4.4,2.6,5.9l1.1,1
		c1.4,1.3,1.6,3.5,0.3,5c-0.1,0.1-0.2,0.2-0.3,0.3l-1.1,1c-1.7,1.5-2.6,3.6-2.6,5.9V35c0,0.5,0.4,0.8,0.8,0.8h13.3
		C30.1,35.8,30.5,35.4,30.5,35z M28.3,33.4c0,0.3-0.3,0.6-0.6,0.6h-9.4c-0.3,0-0.6-0.3-0.6-0.6v-0.9c0-1.6,0.9-3.1,2.3-3.9l2.5-1.4
		c0.3-0.2,0.7-0.2,1,0l2.5,1.4c1.4,0.8,2.3,2.3,2.3,3.9C28.3,32.5,28.3,33.4,28.3,33.4z"/>
    <path class="st5" d="M30.5,551c-3.7,0-6.9-4.1-8.6-6.3l-0.3-0.3c-1.1-1.4-3.7-4.8-5.9-4.8c-1.1,0-2,0.4-2.8,1.1s-1.2,1.7-1.2,2.7
		s0.4,2,1.1,2.8c0.7,0.7,1.7,1.2,2.7,1.2h0.1c1,0,1.5-0.4,2-1.8c0.4-0.9,1.4-1.4,2.4-1c0.4,0.2,0.8,0.5,1,0.9s0.2,0.9,0.1,1.3v0.1
		c-1.3,3.3-3.7,4-5.4,4c-4.1,0-7.5-3.4-7.5-7.5s3.4-7.5,7.5-7.5c3.4,0,6.3,3.1,8.4,5.8l0.6,0.7c0.9,1.2,3.8,4.9,5.8,4.9
		c1.1,0,2-0.4,2.8-1.1c0.7-0.7,1.2-1.7,1.2-2.7s-0.4-2-1.1-2.8c-0.7-0.7-1.7-1.2-2.7-1.2h-0.1h-0.2c-0.9-0.1-1.7,0.5-1.9,1.3v0.1
		c-0.4,0.9-1.4,1.4-2.4,1c-0.4-0.2-0.8-0.5-1-0.9s-0.2-0.9,0-1.4c0.8-2.3,3-3.9,5.5-3.7l0,0c4.1,0,7.4,3.4,7.4,7.5
		C38,547.7,34.7,551,30.5,551z"/>
</g>
  <g id="timeline_x5F_mask">
	<defs>
		<rect id="mask_x5F_box" x="1" y="1.7" width="45" height="564.3"/>
	</defs>
    <clipPath id="mask_x5F_box_1_">
		<use xlink:href="#mask_x5F_box" style="overflow:visible;"/>
	</clipPath>
    <g id="black_x5F_line" class="st6">
		<path class="st7" d="M45.2,122.5l-1.4,0.4L45.2,122.5c-0.7-2.3-2.4-4.1-4.6-5c0-2.3-1.1-4.6-3-6c-2.1-1.6-4.7-2-7.2-1.3
			c-0.9-1.3-2.2-2.3-3.8-2.8c-0.2-0.1-0.4-0.1-0.6-0.2V44.8c10.4-1.5,18.5-10.4,18.5-21.3C44.5,11.6,34.9,2,23,2S1.5,11.6,1.5,23.5
			c0,11.2,8.6,20.4,19.5,21.4v62.7c-0.1,0.1-0.3,0.1-0.4,0.2c-1.1,0.5-2,1.2-2.8,2.2c-2.3-0.6-4.8-0.2-6.7,1.1
			c-2,1.4-3.2,3.5-3.3,5.9c-2.2,0.8-4,2.5-4.8,4.8s-0.4,4.7,0.9,6.6c-1.3,1.9-1.7,4.3-1,6.6s2.5,4.1,4.7,4.9
			c0.1,2.3,1.2,4.5,3.1,5.9c2,1.4,4.4,1.9,6.7,1.3c0.9,1.2,2.1,2,3.6,2.5v218c-10.9,1-19.5,10.2-19.5,21.4s8.6,20.4,19.5,21.4v111.7
			c-10.9,1-19.5,10.2-19.5,21.4c0,11.9,9.6,21.5,21.5,21.5s21.5-9.6,21.5-21.5c0-10.8-8.1-19.8-18.5-21.3v-112
			c10.4-1.5,18.5-10.4,18.5-21.3s-8.1-19.8-18.5-21.3v-218c0.5-0.2,1-0.4,1.5-0.6c0.9-0.5,1.6-1.1,2.2-1.8c2.3,0.7,4.8,0.3,6.8-1
			s3.2-3.5,3.4-5.8c2.2-0.7,4-2.4,4.9-4.7c0.8-2.2,0.5-4.7-0.7-6.7C45.4,127.2,45.9,124.8,45.2,122.5z M4.5,23.5
			C4.5,13.3,12.8,5,23,5s18.5,8.3,18.5,18.5S33.2,42,23,42S4.5,33.7,4.5,23.5z M41.5,543.5c0,10.2-8.3,18.5-18.5,18.5
			s-18.5-8.3-18.5-18.5S12.8,525,23,525S41.5,533.3,41.5,543.5z M41.5,389c0,10.2-8.3,18.5-18.5,18.5S4.5,399.2,4.5,389
			s8.3-18.5,18.5-18.5S41.5,378.8,41.5,389z M41,130.1c1.2,1.3,1.5,3,1,4.7c-0.6,1.6-2.1,2.8-3.8,3.1l-1.4,0.2l0.2,1.4
			c0.2,1.7-0.6,3.4-2,4.3c-1.5,1-3.4,1.1-5,0.3l-1.2-0.6l-0.7,1.2c-0.4,0.8-1.1,1.4-1.9,1.8c-1.2,0.6-2.5,0.8-3.8,0.4
			c-1.3-0.4-2.3-1.2-2.9-2.4l-0.7-1.2l-1.3,0.6c-1.6,0.7-3.5,0.5-5-0.5c-1.4-1-2.1-2.7-1.9-4.4l0.2-1.4l-1.4-0.3
			c-1.7-0.3-3.1-1.5-3.7-3.2c-0.5-1.6-0.1-3.4,1.1-4.6l1.1-1l-1-1.1c-1.2-1.2-1.6-3-1-4.6c0.6-1.7,2-2.9,3.7-3.1l1.4-0.2l-0.2-1.4
			c-0.2-1.7,0.5-3.4,2-4.4s3.4-1.2,5-0.4l1.3,0.6l0.7-1.2c0.5-0.9,1.3-1.6,2.2-2c2.5-1.2,5.4-0.1,6.6,2.3l0.7,1.4l1.4-0.7
			c1.7-0.9,3.8-0.7,5.3,0.4c1.4,1,2.1,2.7,1.8,4.4l-0.2,1.4l1.4,0.3c1.7,0.3,3.1,1.6,3.6,3.3l0,0c0.5,1.6,0,3.4-1.2,4.6l-1.1,1
			L41,130.1z"/>
      <path class="st7" d="M31.6,121.6l-10.9,10.9l-3.9-3.9c-1-1-2.6-1-3.5,0c-1,1-1,2.6,0,3.5l5.6,5.6c0.6,0.6,1.4,0.8,2.3,0.7
			c0.5-0.1,1-0.3,1.4-0.7l12.6-12.6c1-1,1-2.6,0-3.5C34.1,120.6,32.5,120.6,31.6,121.6z"/>
      <path class="st7" d="M15.7,383v2.2H14l0,0c-0.3,0-0.5,0.2-0.5,0.5v13.5c0,1.2,1,2.2,2.2,2.2h15.1l0,0c1.2,0,2.2-1,2.2-2.2v-13.5
			c0-0.3-0.2-0.5-0.5-0.5h-1.6V383c0-4.2-3.4-7.5-7.6-7.5C19,375.5,15.7,378.9,15.7,383z M18.9,383c0-2.4,1.9-4.3,4.3-4.3
			s4.3,1.9,4.3,4.3v2.2h-8.6V383z M19.2,392.9l2.2,2.2l6.3-6.3c0.6-0.5,1.5-0.5,2,0c0.6,0.6,0.6,1.5,0,2l-7.3,7.3
			c-0.2,0.2-0.5,0.4-0.8,0.4c-0.1,0-0.2,0-0.3,0c-0.4,0-0.7-0.2-1-0.4l-3.2-3.2c-0.3-0.3-0.4-0.6-0.4-1c0-0.8,0.6-1.4,1.4-1.4
			C18.5,392.5,18.9,392.6,19.2,392.9z"/>
      <path class="st7" d="M30.5,35v-1.1c0-2.2-0.9-4.4-2.6-5.9l-1.1-1c-1.4-1.3-1.5-3.5-0.2-5c0.1-0.1,0.2-0.2,0.3-0.3l1.1-1
			c1.7-1.5,2.6-3.6,2.6-5.9v-1.1c0-0.5-0.4-0.8-0.8-0.8H16.3c-0.5,0-0.8,0.4-0.8,0.8v1.1c0,2.2,1,4.4,2.6,5.9l1.1,1
			c1.4,1.3,1.6,3.5,0.3,5c-0.1,0.1-0.2,0.2-0.3,0.3l-1.1,1c-1.7,1.5-2.6,3.6-2.6,5.9V35c0,0.5,0.4,0.8,0.8,0.8h13.3
			C30.1,35.8,30.5,35.4,30.5,35z M28.3,33.4c0,0.3-0.3,0.6-0.6,0.6h-9.4c-0.3,0-0.6-0.3-0.6-0.6v-0.9c0-1.6,0.9-3.1,2.3-3.9l2.5-1.4
			c0.3-0.2,0.7-0.2,1,0l2.5,1.4c1.4,0.8,2.3,2.3,2.3,3.9C28.3,32.5,28.3,33.4,28.3,33.4z"/>
      <path class="st7" d="M30.5,551c-3.7,0-6.9-4.1-8.6-6.3l-0.3-0.3c-1.1-1.4-3.7-4.8-5.9-4.8c-1.1,0-2,0.4-2.8,1.1s-1.2,1.7-1.2,2.7
			s0.4,2,1.1,2.8c0.7,0.7,1.7,1.2,2.7,1.2h0.1c1,0,1.5-0.4,2-1.8c0.4-0.9,1.4-1.4,2.4-1c0.4,0.2,0.8,0.5,1,0.9s0.2,0.9,0.1,1.3v0.1
			c-1.3,3.3-3.7,4-5.4,4c-4.1,0-7.5-3.4-7.5-7.5s3.4-7.5,7.5-7.5c3.4,0,6.3,3.1,8.4,5.8l0.6,0.7c0.9,1.2,3.8,4.9,5.8,4.9
			c1.1,0,2-0.4,2.8-1.1c0.7-0.7,1.2-1.7,1.2-2.7s-0.4-2-1.1-2.8c-0.7-0.7-1.7-1.2-2.7-1.2h-0.1h-0.2c-0.9-0.1-1.7,0.5-1.9,1.3v0.1
			c-0.4,0.9-1.4,1.4-2.4,1c-0.4-0.2-0.8-0.5-1-0.9s-0.2-0.9,0-1.4c0.8-2.3,3-3.9,5.5-3.7l0,0c4.1,0,7.4,3.4,7.4,7.5
			C38,547.7,34.7,551,30.5,551z"/>
	</g>
</g>
  <path id="sec_x5F_box" class="st8" d="M64,411c-5.5,0-10-4.5-10-10v-5l-5.6-5.6c-0.8-0.8-0.8-2,0-2.8l0,0L54,382v-4
	c0-5.5,4.5-10,10-10h23c5.5,0,10,4.5,10,10v23c0,5.5-4.5,10-10,10H64z"/>
  <text transform="matrix(1 0 0 1 60.3581 398)" class="st9 st10 st11">10</text>
</svg>
